Design_1/fifo_reader_simulation/project_2/project_2.sim/sim_1/behav/xsim/simulate.log
Time resolution is 1 ps
Time: 0 | rd_en: 0 | fifo_dout: 00 | data_out: 00 | fire: 0 | data_out_clk: 0 | reading: 1 | read_count:   0
Loading FIFO with data
Time: 35000 | rd_en: 1 | fifo_dout: 00 | data_out: 00 | fire: 0 | data_out_clk: 0 | reading: 1 | read_count:   1
Time: 45000 | rd_en: 1 | fifo_dout: 00 | data_out: 00 | fire: 0 | data_out_clk: 1 | reading: 1 | read_count:   2
Time: 50000 | rd_en: 1 | fifo_dout: 01 | data_out: 00 | fire: 0 | data_out_clk: 0 | reading: 1 | read_count:   2
Time: 55000 | rd_en: 1 | fifo_dout: 01 | data_out: 01 | fire: 0 | data_out_clk: 1 | reading: 1 | read_count:   3
Time: 60000 | rd_en: 1 | fifo_dout: 02 | data_out: 01 | fire: 0 | data_out_clk: 0 | reading: 1 | read_count:   3
Time: 65000 | rd_en: 1 | fifo_dout: 02 | data_out: 02 | fire: 0 | data_out_clk: 1 | reading: 1 | read_count:   4
Time: 70000 | rd_en: 1 | fifo_dout: 03 | data_out: 02 | fire: 0 | data_out_clk: 0 | reading: 1 | read_count:   4
Time: 75000 | rd_en: 1 | fifo_dout: 03 | data_out: 03 | fire: 0 | data_out_clk: 1 | reading: 1 | read_count:   5
Time: 80000 | rd_en: 1 | fifo_dout: 04 | data_out: 03 | fire: 0 | data_out_clk: 0 | reading: 1 | read_count:   5
Time: 85000 | rd_en: 1 | fifo_dout: 04 | data_out: 04 | fire: 0 | data_out_clk: 1 | reading: 1 | read_count:   6
Time: 90000 | rd_en: 1 | fifo_dout: 05 | data_out: 04 | fire: 0 | data_out_clk: 0 | reading: 1 | read_count:   6
Time: 95000 | rd_en: 1 | fifo_dout: 05 | data_out: 05 | fire: 0 | data_out_clk: 1 | reading: 1 | read_count:   7
Time: 100000 | rd_en: 1 | fifo_dout: 06 | data_out: 05 | fire: 0 | data_out_clk: 0 | reading: 1 | read_count:   7
Time: 105000 | rd_en: 1 | fifo_dout: 06 | data_out: 06 | fire: 0 | data_out_clk: 1 | reading: 1 | read_count:   8
Time: 110000 | rd_en: 1 | fifo_dout: 07 | data_out: 06 | fire: 0 | data_out_clk: 0 | reading: 1 | read_count:   8
Time: 115000 | rd_en: 1 | fifo_dout: 07 | data_out: 07 | fire: 0 | data_out_clk: 1 | reading: 1 | read_count:   9
Time: 120000 | rd_en: 1 | fifo_dout: 08 | data_out: 07 | fire: 0 | data_out_clk: 0 | reading: 1 | read_count:   9
Time: 125000 | rd_en: 1 | fifo_dout: 08 | data_out: 08 | fire: 0 | data_out_clk: 1 | reading: 1 | read_count:  10
Time: 130000 | rd_en: 1 | fifo_dout: 09 | data_out: 08 | fire: 0 | data_out_clk: 0 | reading: 1 | read_count:  10
Time: 135000 | rd_en: 1 | fifo_dout: 09 | data_out: 09 | fire: 0 | data_out_clk: 1 | reading: 1 | read_count:  11
Time: 140000 | rd_en: 1 | fifo_dout: 0a | data_out: 09 | fire: 0 | data_out_clk: 0 | reading: 1 | read_count:  11
Time: 145000 | rd_en: 0 | fifo_dout: 0a | data_out: 09 | fire: 0 | data_out_clk: 0 | reading: 0 | read_count:   0
Time: 215000 | rd_en: 0 | fifo_dout: 0a | data_out: 09 | fire: 1 | data_out_clk: 0 | reading: 0 | read_count:   0
Time: 225000 | rd_en: 0 | fifo_dout: 0a | data_out: 09 | fire: 0 | data_out_clk: 0 | reading: 0 | read_count:   0
Time: 265000 | rd_en: 0 | fifo_dout: 0a | data_out: 09 | fire: 0 | data_out_clk: 0 | reading: 1 | read_count:   0
Time: 275000 | rd_en: 1 | fifo_dout: 0a | data_out: 0a | fire: 0 | data_out_clk: 1 | reading: 1 | read_count:   1
Time: 280000 | rd_en: 1 | fifo_dout: 0b | data_out: 0a | fire: 0 | data_out_clk: 0 | reading: 1 | read_count:   1
Time: 285000 | rd_en: 1 | fifo_dout: 0b | data_out: 0b | fire: 0 | data_out_clk: 1 | reading: 1 | read_count:   2
Time: 290000 | rd_en: 1 | fifo_dout: 0c | data_out: 0b | fire: 0 | data_out_clk: 0 | reading: 1 | read_count:   2
Time: 295000 | rd_en: 1 | fifo_dout: 0c | data_out: 0c | fire: 0 | data_out_clk: 1 | reading: 1 | read_count:   3
Time: 300000 | rd_en: 1 | fifo_dout: 0d | data_out: 0c | fire: 0 | data_out_clk: 0 | reading: 1 | read_count:   3
Time: 305000 | rd_en: 1 | fifo_dout: 0d | data_out: 0d | fire: 0 | data_out_clk: 1 | reading: 1 | read_count:   4
Time: 310000 | rd_en: 1 | fifo_dout: 0e | data_out: 0d | fire: 0 | data_out_clk: 0 | reading: 1 | read_count:   4
Time: 315000 | rd_en: 1 | fifo_dout: 0e | data_out: 0e | fire: 0 | data_out_clk: 1 | reading: 1 | read_count:   5
Time: 320000 | rd_en: 1 | fifo_dout: 0f | data_out: 0e | fire: 0 | data_out_clk: 0 | reading: 1 | read_count:   5
Time: 325000 | rd_en: 1 | fifo_dout: 0f | data_out: 0f | fire: 0 | data_out_clk: 1 | reading: 1 | read_count:   6
Time: 330000 | rd_en: 1 | fifo_dout: 10 | data_out: 0f | fire: 0 | data_out_clk: 0 | reading: 1 | read_count:   6
Time: 335000 | rd_en: 1 | fifo_dout: 10 | data_out: 10 | fire: 0 | data_out_clk: 1 | reading: 1 | read_count:   7
Time: 340000 | rd_en: 1 | fifo_dout: 11 | data_out: 10 | fire: 0 | data_out_clk: 0 | reading: 1 | read_count:   7
Time: 345000 | rd_en: 1 | fifo_dout: 11 | data_out: 11 | fire: 0 | data_out_clk: 1 | reading: 1 | read_count:   8
Time: 350000 | rd_en: 1 | fifo_dout: 12 | data_out: 11 | fire: 0 | data_out_clk: 0 | reading: 1 | read_count:   8
Time: 355000 | rd_en: 1 | fifo_dout: 12 | data_out: 12 | fire: 0 | data_out_clk: 1 | reading: 1 | read_count:   9
Time: 360000 | rd_en: 1 | fifo_dout: 13 | data_out: 12 | fire: 0 | data_out_clk: 0 | reading: 1 | read_count:   9
Time: 365000 | rd_en: 1 | fifo_dout: 13 | data_out: 13 | fire: 0 | data_out_clk: 1 | reading: 1 | read_count:  10
Time: 370000 | rd_en: 1 | fifo_dout: 14 | data_out: 13 | fire: 0 | data_out_clk: 0 | reading: 1 | read_count:  10
Time: 375000 | rd_en: 1 | fifo_dout: 14 | data_out: 14 | fire: 0 | data_out_clk: 1 | reading: 1 | read_count:  11
Time: 380000 | rd_en: 1 | fifo_dout: 15 | data_out: 14 | fire: 0 | data_out_clk: 0 | reading: 1 | read_count:  11
Time: 385000 | rd_en: 0 | fifo_dout: 15 | data_out: 14 | fire: 0 | data_out_clk: 0 | reading: 0 | read_count:   0
Time: 615000 | rd_en: 0 | fifo_dout: 15 | data_out: 14 | fire: 1 | data_out_clk: 0 | reading: 0 | read_count:   0
Time: 625000 | rd_en: 0 | fifo_dout: 15 | data_out: 14 | fire: 0 | data_out_clk: 0 | reading: 0 | read_count:   0
Time: 665000 | rd_en: 0 | fifo_dout: 15 | data_out: 14 | fire: 0 | data_out_clk: 0 | reading: 1 | read_count:   0
Time: 675000 | rd_en: 1 | fifo_dout: 15 | data_out: 15 | fire: 0 | data_out_clk: 1 | reading: 1 | read_count:   1
Time: 680000 | rd_en: 1 | fifo_dout: 16 | data_out: 15 | fire: 0 | data_out_clk: 0 | reading: 1 | read_count:   1
Time: 685000 | rd_en: 1 | fifo_dout: 16 | data_out: 16 | fire: 0 | data_out_clk: 1 | reading: 1 | read_count:   2
Time: 690000 | rd_en: 1 | fifo_dout: 17 | data_out: 16 | fire: 0 | data_out_clk: 0 | reading: 1 | read_count:   2
Time: 695000 | rd_en: 1 | fifo_dout: 17 | data_out: 17 | fire: 0 | data_out_clk: 1 | reading: 1 | read_count:   3
Time: 700000 | rd_en: 1 | fifo_dout: 18 | data_out: 17 | fire: 0 | data_out_clk: 0 | reading: 1 | read_count:   3
Time: 705000 | rd_en: 1 | fifo_dout: 18 | data_out: 18 | fire: 0 | data_out_clk: 1 | reading: 1 | read_count:   4
Time: 710000 | rd_en: 1 | fifo_dout: 19 | data_out: 18 | fire: 0 | data_out_clk: 0 | reading: 1 | read_count:   4
Time: 715000 | rd_en: 1 | fifo_dout: 19 | data_out: 19 | fire: 0 | data_out_clk: 1 | reading: 1 | read_count:   5
Time: 720000 | rd_en: 1 | fifo_dout: 1a | data_out: 19 | fire: 0 | data_out_clk: 0 | reading: 1 | read_count:   5
Time: 725000 | rd_en: 1 | fifo_dout: 1a | data_out: 1a | fire: 0 | data_out_clk: 1 | reading: 1 | read_count:   6
Time: 730000 | rd_en: 1 | fifo_dout: 1b | data_out: 1a | fire: 0 | data_out_clk: 0 | reading: 1 | read_count:   6
Time: 735000 | rd_en: 1 | fifo_dout: 1b | data_out: 1b | fire: 0 | data_out_clk: 1 | reading: 1 | read_count:   7
Time: 740000 | rd_en: 1 | fifo_dout: 1c | data_out: 1b | fire: 0 | data_out_clk: 0 | reading: 1 | read_count:   7
Time: 745000 | rd_en: 1 | fifo_dout: 1c | data_out: 1c | fire: 0 | data_out_clk: 1 | reading: 1 | read_count:   8
Time: 750000 | rd_en: 1 | fifo_dout: 1d | data_out: 1c | fire: 0 | data_out_clk: 0 | reading: 1 | read_count:   8
Time: 755000 | rd_en: 1 | fifo_dout: 1d | data_out: 1d | fire: 0 | data_out_clk: 1 | reading: 1 | read_count:   9
Time: 760000 | rd_en: 1 | fifo_dout: 1e | data_out: 1d | fire: 0 | data_out_clk: 0 | reading: 1 | read_count:   9
Time: 765000 | rd_en: 1 | fifo_dout: 1e | data_out: 1e | fire: 0 | data_out_clk: 1 | reading: 1 | read_count:  10
Time: 770000 | rd_en: 1 | fifo_dout: 1f | data_out: 1e | fire: 0 | data_out_clk: 0 | reading: 1 | read_count:  10
Time: 775000 | rd_en: 1 | fifo_dout: 1f | data_out: 1f | fire: 0 | data_out_clk: 1 | reading: 1 | read_count:  11
Time: 780000 | rd_en: 1 | fifo_dout: 20 | data_out: 1f | fire: 0 | data_out_clk: 0 | reading: 1 | read_count:  11
Time: 785000 | rd_en: 0 | fifo_dout: 20 | data_out: 1f | fire: 0 | data_out_clk: 0 | reading: 0 | read_count:   0
